03:11:58 - ::1:
SQLSTATE[42000]: Syntax error or access violation: 1064 You have an error in your SQL syntax; check the manual that corresponds to your MySQL server version for the right syntax to use near 'DATE_HEURE,STATUT,DESCRIPTION,MAJ FROM AFFECTATIONS LEFT JOIN CLIENTS ON AFFECTA' at line 1
#0 /Applications/MAMP/htdocs/PPE_NEW/App/Core/Model/AssignmentDAO.php(55): PDO->query('SELECT ADMIN_ID...')
#1 /Applications/MAMP/htdocs/PPE_NEW/App/Core/Model/AssignmentDAO.php(86): AssignmentDAO->findByCustomer(Object(Customer))
#2 /Applications/MAMP/htdocs/PPE_NEW/App/Core/Class/Guest.php(29): AssignmentDAO->hydrate(Object(Customer))
#3 /Applications/MAMP/htdocs/PPE_NEW/App/Core/Controller/AuthController.php(19): Guest->login('alexandre.masan...', 'kikou')
#4 /Applications/MAMP/htdocs/PPE_NEW/App/Core/Controller/Dispatcher.php(60): AuthController->connexion()
#5 /Applications/MAMP/htdocs/PPE_NEW/main.php(41): Dispatcher::deliver()
#6 {main}

05:11:22 - ::1:
SQLSTATE[42S22]: Column not found: 1054 Unknown column 'last_update' in 'field list'
#0 /Applications/MAMP/htdocs/PPE_NEW/App/Core/Model/DAO.php(143): PDO->query('SELECT code,id,...')
#1 /Applications/MAMP/htdocs/PPE_NEW/App/Core/Model/UserAccountDAO.php(32): DAO->find(1, Object(Search))
#2 /Applications/MAMP/htdocs/PPE_NEW/App/Core/Class/Guest.php(10): UserAccountDAO->findByEmailAndPwd('alexandre.masan...', 'kikou')
#3 /Applications/MAMP/htdocs/PPE_NEW/App/Core/Controller/AuthController.php(19): Guest->login('alexandre.masan...', 'kikou')
#4 /Applications/MAMP/htdocs/PPE_NEW/App/Core/Controller/Dispatcher.php(60): AuthController->connexion()
#5 /Applications/MAMP/htdocs/PPE_NEW/main.php(41): Dispatcher::deliver()
#6 {main}

06:11:52 - ::1:
SQLSTATE[42S22]: Column not found: 1054 Unknown column 'first_name' in 'field list'
#0 /Applications/MAMP/htdocs/PPE_NEW/App/Core/Model/CustomerDAO.php(38): PDO->query('SELECT CLIENTS....')
#1 /Applications/MAMP/htdocs/PPE_NEW/App/Core/Class/Guest.php(28): CustomerDAO->find(1, Object(Search))
#2 /Applications/MAMP/htdocs/PPE_NEW/App/Core/Controller/AuthController.php(19): Guest->login('alexandre.masan...', 'kikou')
#3 /Applications/MAMP/htdocs/PPE_NEW/App/Core/Controller/Dispatcher.php(60): AuthController->connexion()
#4 /Applications/MAMP/htdocs/PPE_NEW/main.php(41): Dispatcher::deliver()
#5 {main}

06:11:41 - ::1:
SQLSTATE[23000]: Integrity constraint violation: 1052 Column 'ID' in field list is ambiguous
#0 /Applications/MAMP/htdocs/PPE_NEW/App/Core/Model/CustomerDAO.php(38): PDO->query('SELECT ID,PRENO...')
#1 /Applications/MAMP/htdocs/PPE_NEW/App/Core/Class/Guest.php(28): CustomerDAO->find(1, Object(Search))
#2 /Applications/MAMP/htdocs/PPE_NEW/App/Core/Controller/AuthController.php(19): Guest->login('alexandre.masan...', 'kikou')
#3 /Applications/MAMP/htdocs/PPE_NEW/App/Core/Controller/Dispatcher.php(60): AuthController->connexion()
#4 /Applications/MAMP/htdocs/PPE_NEW/main.php(41): Dispatcher::deliver()
#5 {main}

06:11:28 - ::1:
SQLSTATE[23000]: Integrity constraint violation: 1052 Column 'ID' in field list is ambiguous
#0 /Applications/MAMP/htdocs/PPE_NEW/App/Core/Model/CustomerDAO.php(38): PDO->query('SELECT ID,PRENO...')
#1 /Applications/MAMP/htdocs/PPE_NEW/App/Core/Class/Guest.php(28): CustomerDAO->find(1, Object(Search))
#2 /Applications/MAMP/htdocs/PPE_NEW/App/Core/Controller/AuthController.php(19): Guest->login('alexandre.masan...', 'kikou')
#3 /Applications/MAMP/htdocs/PPE_NEW/App/Core/Controller/Dispatcher.php(60): AuthController->connexion()
#4 /Applications/MAMP/htdocs/PPE_NEW/main.php(41): Dispatcher::deliver()
#5 {main}

06:11:37 - ::1:
SQLSTATE[23000]: Integrity constraint violation: 1052 Column 'ID' in field list is ambiguous
#0 /Applications/MAMP/htdocs/PPE_NEW/App/Core/Model/CustomerDAO.php(38): PDO->query('SELECT ID,PRENO...')
#1 /Applications/MAMP/htdocs/PPE_NEW/App/Core/Class/Guest.php(28): CustomerDAO->find(1, Object(Search))
#2 /Applications/MAMP/htdocs/PPE_NEW/App/Core/Controller/AuthController.php(19): Guest->login('alexandre.masan...', 'kikou')
#3 /Applications/MAMP/htdocs/PPE_NEW/App/Core/Controller/Dispatcher.php(60): AuthController->connexion()
#4 /Applications/MAMP/htdocs/PPE_NEW/main.php(41): Dispatcher::deliver()
#5 {main}

07:11:32 - ::1:
SQLSTATE[23000]: Integrity constraint violation: 1052 Column 'ID' in field list is ambiguous
#0 /Applications/MAMP/htdocs/PPE_NEW/App/Core/Model/CustomerDAO.php(35): PDO->query('SELECT CLIENTS....')
#1 /Applications/MAMP/htdocs/PPE_NEW/App/Core/Class/Guest.php(28): CustomerDAO->find(1, Object(Search))
#2 /Applications/MAMP/htdocs/PPE_NEW/App/Core/Controller/AuthController.php(19): Guest->login('alexandre.masan...', 'kikou')
#3 /Applications/MAMP/htdocs/PPE_NEW/App/Core/Controller/Dispatcher.php(60): AuthController->connexion()
#4 /Applications/MAMP/htdocs/PPE_NEW/main.php(41): Dispatcher::deliver()
#5 {main}

