01:10:17 - ::1:
SQLSTATE[42000]: Syntax error or access violation: 1064 You have an error in your SQL syntax; check the manual that corresponds to your MySQL server version for the right syntax to use near 'LIMIT 1' at line 1
#0 /Applications/MAMP/htdocs/PPE_NEW/App/Core/Model/DAO.php(131): PDO->query('SELECT CODE,ID,...')
#1 /Applications/MAMP/htdocs/PPE_NEW/App/Core/Class/Invite.php(11): DAO->find(1, Array)
#2 /Applications/MAMP/htdocs/PPE_NEW/App/Core/Controller/AuthController.php(19): Invite->login('alexandre.masan...', 'kikou')
#3 /Applications/MAMP/htdocs/PPE_NEW/App/Core/Controller/Dispatcher.php(60): AuthController->connexion()
#4 /Applications/MAMP/htdocs/PPE_NEW/main.php(42): Dispatcher::deliver()
#5 {main}

01:10:53 - ::1:
SQLSTATE[42000]: Syntax error or access violation: 1064 You have an error in your SQL syntax; check the manual that corresponds to your MySQL server version for the right syntax to use near 'LIMIT 1' at line 1
#0 /Applications/MAMP/htdocs/PPE_NEW/App/Core/Model/DAO.php(131): PDO->query('SELECT CODE,ID,...')
#1 /Applications/MAMP/htdocs/PPE_NEW/App/Core/Class/Invite.php(11): DAO->find(1, Array)
#2 /Applications/MAMP/htdocs/PPE_NEW/App/Core/Controller/AuthController.php(19): Invite->login('alexandre.masan...', 'kikou')
#3 /Applications/MAMP/htdocs/PPE_NEW/App/Core/Controller/Dispatcher.php(60): AuthController->connexion()
#4 /Applications/MAMP/htdocs/PPE_NEW/main.php(42): Dispatcher::deliver()
#5 {main}

01:10:43 - ::1:
SQLSTATE[42000]: Syntax error or access violation: 1064 You have an error in your SQL syntax; check the manual that corresponds to your MySQL server version for the right syntax to use near 'LIMIT 1' at line 1
#0 /Applications/MAMP/htdocs/PPE_NEW/App/Core/Model/DAO.php(131): PDO->query('SELECT CODE,ID,...')
#1 /Applications/MAMP/htdocs/PPE_NEW/App/Core/Class/Invite.php(11): DAO->find(1, Array)
#2 /Applications/MAMP/htdocs/PPE_NEW/App/Core/Controller/AuthController.php(19): Invite->login('alexandre.masan...', 'kikou')
#3 /Applications/MAMP/htdocs/PPE_NEW/App/Core/Controller/Dispatcher.php(60): AuthController->connexion()
#4 /Applications/MAMP/htdocs/PPE_NEW/main.php(42): Dispatcher::deliver()
#5 {main}

01:10:05 - ::1:
SQLSTATE[42000]: Syntax error or access violation: 1064 You have an error in your SQL syntax; check the manual that corresponds to your MySQL server version for the right syntax to use near 'LIMIT 1' at line 1
#0 /Applications/MAMP/htdocs/PPE_NEW/App/Core/Model/DAO.php(131): PDO->query('SELECT CODE,ID,...')
#1 /Applications/MAMP/htdocs/PPE_NEW/App/Core/Class/Invite.php(11): DAO->find(1, Array)
#2 /Applications/MAMP/htdocs/PPE_NEW/App/Core/Controller/AuthController.php(19): Invite->login('alexandre.masan...', 'kikou')
#3 /Applications/MAMP/htdocs/PPE_NEW/App/Core/Controller/Dispatcher.php(60): AuthController->connexion()
#4 /Applications/MAMP/htdocs/PPE_NEW/main.php(42): Dispatcher::deliver()
#5 {main}

02:10:39 - ::1:
SQLSTATE[42000]: Syntax error or access violation: 1064 You have an error in your SQL syntax; check the manual that corresponds to your MySQL server version for the right syntax to use near 'OR  LIMIT 1' at line 1
#0 /Applications/MAMP/htdocs/PPE_NEW/App/Core/Model/DAO.php(131): PDO->query('SELECT CODE,ID,...')
#1 /Applications/MAMP/htdocs/PPE_NEW/App/Core/Class/Invite.php(11): DAO->find(1, Array)
#2 /Applications/MAMP/htdocs/PPE_NEW/App/Core/Controller/AuthController.php(19): Invite->login('alexandre.masan...', 'kikou')
#3 /Applications/MAMP/htdocs/PPE_NEW/App/Core/Controller/Dispatcher.php(60): AuthController->connexion()
#4 /Applications/MAMP/htdocs/PPE_NEW/main.php(42): Dispatcher::deliver()
#5 {main}

02:10:53 - ::1:
SQLSTATE[42000]: Syntax error or access violation: 1064 You have an error in your SQL syntax; check the manual that corresponds to your MySQL server version for the right syntax to use near 'IN(52) LIMIT 1' at line 1
#0 /Applications/MAMP/htdocs/PPE_NEW/App/Core/Model/CustomerDAO.php(49): PDO->query('SELECT A.CARTE_...')
#1 /Applications/MAMP/htdocs/PPE_NEW/App/Core/Model/InsureeDAO.php(20): CustomerDAO->find(1, Array)
#2 /Applications/MAMP/htdocs/PPE_NEW/App/Core/Class/Invite.php(29): InsureeDAO->find(1, Array)
#3 /Applications/MAMP/htdocs/PPE_NEW/App/Core/Controller/AuthController.php(19): Invite->login('alexandre.masan...', 'kikou')
#4 /Applications/MAMP/htdocs/PPE_NEW/App/Core/Controller/Dispatcher.php(60): AuthController->connexion()
#5 /Applications/MAMP/htdocs/PPE_NEW/main.php(42): Dispatcher::deliver()
#6 {main}

02:10:10 - ::1:
SQLSTATE[42000]: Syntax error or access violation: 1064 You have an error in your SQL syntax; check the manual that corresponds to your MySQL server version for the right syntax to use near 'IN(52) LIMIT 1' at line 1
#0 /Applications/MAMP/htdocs/PPE_NEW/App/Core/Model/CustomerDAO.php(52): PDO->query('SELECT A.ID,PRE...')
#1 /Applications/MAMP/htdocs/PPE_NEW/App/Core/Model/InsureeDAO.php(20): CustomerDAO->find(1, Array)
#2 /Applications/MAMP/htdocs/PPE_NEW/App/Core/Class/Invite.php(29): InsureeDAO->find(1, Array)
#3 /Applications/MAMP/htdocs/PPE_NEW/App/Core/Controller/AuthController.php(19): Invite->login('alexandre.masan...', 'kikou')
#4 /Applications/MAMP/htdocs/PPE_NEW/App/Core/Controller/Dispatcher.php(60): AuthController->connexion()
#5 /Applications/MAMP/htdocs/PPE_NEW/main.php(42): Dispatcher::deliver()
#6 {main}

04:10:55 - ::1:
SQLSTATE[42000]: Syntax error or access violation: 1065 Query was empty
#0 /Applications/MAMP/htdocs/PPE_NEW/App/Core/Model/CustomerDAO.php(39): PDO->query('')
#1 /Applications/MAMP/htdocs/PPE_NEW/App/Core/Model/InsureeDAO.php(23): CustomerDAO->find(1, Object(Search))
#2 /Applications/MAMP/htdocs/PPE_NEW/App/Core/Class/Invite.php(32): InsureeDAO->find(1, Object(Search))
#3 /Applications/MAMP/htdocs/PPE_NEW/App/Core/Controller/AuthController.php(19): Invite->login('alexandre.masan...', 'kikou')
#4 /Applications/MAMP/htdocs/PPE_NEW/App/Core/Controller/Dispatcher.php(60): AuthController->connexion()
#5 /Applications/MAMP/htdocs/PPE_NEW/main.php(42): Dispatcher::deliver()
#6 {main}

04:10:05 - ::1:
SQLSTATE[23000]: Integrity constraint violation: 1052 Column 'ID' in where clause is ambiguous
#0 /Applications/MAMP/htdocs/PPE_NEW/App/Core/Model/CustomerDAO.php(39): PDO->query('SELECT A.ID,PRE...')
#1 /Applications/MAMP/htdocs/PPE_NEW/App/Core/Model/InsureeDAO.php(23): CustomerDAO->find(1, Object(Search))
#2 /Applications/MAMP/htdocs/PPE_NEW/App/Core/Class/Invite.php(32): InsureeDAO->find(1, Object(Search))
#3 /Applications/MAMP/htdocs/PPE_NEW/App/Core/Controller/AuthController.php(19): Invite->login('alexandre.masan...', 'kikou')
#4 /Applications/MAMP/htdocs/PPE_NEW/App/Core/Controller/Dispatcher.php(60): AuthController->connexion()
#5 /Applications/MAMP/htdocs/PPE_NEW/main.php(42): Dispatcher::deliver()
#6 {main}

06:10:49 - ::1:
SQLSTATE[42S22]: Column not found: 1054 Unknown column 'BONUS_MALUS' in 'field list'
#0 /Applications/MAMP/htdocs/PPE_NEW/App/Core/Model/DAO.php(120): PDO->query('SELECT BONUS_MA...')
#1 /Applications/MAMP/htdocs/PPE_NEW/App/Core/Model/InsureeDAO.php(24): DAO->find(1, Object(Search))
#2 /Applications/MAMP/htdocs/PPE_NEW/App/Core/Class/Invite.php(31): InsureeDAO->find(1, Object(Search))
#3 /Applications/MAMP/htdocs/PPE_NEW/App/Core/Controller/AuthController.php(19): Invite->login('alexandre.masan...', 'kikou')
#4 /Applications/MAMP/htdocs/PPE_NEW/App/Core/Controller/Dispatcher.php(60): AuthController->connexion()
#5 /Applications/MAMP/htdocs/PPE_NEW/main.php(42): Dispatcher::deliver()
#6 {main}

06:10:12 - ::1:
SQLSTATE[42S22]: Column not found: 1054 Unknown column 'CLIENTS.ID' in 'where clause'
#0 /Applications/MAMP/htdocs/PPE_NEW/App/Core/Model/ThirdPartyDAO.php(32): PDO->query('SELECT TIERS.ID...')
#1 /Applications/MAMP/htdocs/PPE_NEW/App/Core/Model/InsureeDAO.php(24): ThirdPartyDAO->find(1, Object(Search))
#2 /Applications/MAMP/htdocs/PPE_NEW/App/Core/Class/Invite.php(31): InsureeDAO->find(1, Object(Search))
#3 /Applications/MAMP/htdocs/PPE_NEW/App/Core/Controller/AuthController.php(19): Invite->login('alexandre.masan...', 'kikou')
#4 /Applications/MAMP/htdocs/PPE_NEW/App/Core/Controller/Dispatcher.php(60): AuthController->connexion()
#5 /Applications/MAMP/htdocs/PPE_NEW/main.php(42): Dispatcher::deliver()
#6 {main}

