10:10:36 - 127.0.0.1:
SQLSTATE[42000]: Syntax error or access violation: 1064 You have an error in your SQL syntax; check the manual that corresponds to your MySQL server version for the right syntax to use near 'CASE
                                                       FROM INFORMATION_SCH' at line 2
#0 /Applications/MAMP/htdocs/PPE_NEW/App/Core/Model/DAO.php(64): PDO->query('SELECT CASE DAT...')
#1 /Applications/MAMP/htdocs/PPE_NEW/index.php(33): DAO::init()
#2 {main}

10:10:16 - 127.0.0.1:
SQLSTATE[42000]: Syntax error or access violation: 1064 You have an error in your SQL syntax; check the manual that corresponds to your MySQL server version for the right syntax to use near 'THEN COLUMN_NAME END CASE
                                                      ' at line 2
#0 /Applications/MAMP/htdocs/PPE_NEW/App/Core/Model/DAO.php(64): PDO->query('SELECT CASE DAT...')
#1 /Applications/MAMP/htdocs/PPE_NEW/index.php(33): DAO::init()
#2 {main}

10:10:36 - 127.0.0.1:
SQLSTATE[42000]: Syntax error or access violation: 1064 You have an error in your SQL syntax; check the manual that corresponds to your MySQL server version for the right syntax to use near 'CASE
                                                       FROM INFORMATION_SCH' at line 2
#0 /Applications/MAMP/htdocs/PPE_NEW/App/Core/Model/DAO.php(64): PDO->query('SELECT CASE INF...')
#1 /Applications/MAMP/htdocs/PPE_NEW/index.php(33): DAO::init()
#2 {main}

10:10:54 - 127.0.0.1:
SQLSTATE[42000]: Syntax error or access violation: 1064 You have an error in your SQL syntax; check the manual that corresponds to your MySQL server version for the right syntax to use near 'CASE
                                                       FROM INFORMATION_SCH' at line 2
#0 /Applications/MAMP/htdocs/PPE_NEW/App/Core/Model/DAO.php(64): PDO->query('SELECT CASE DAT...')
#1 /Applications/MAMP/htdocs/PPE_NEW/index.php(33): DAO::init()
#2 {main}

10:10:06 - 127.0.0.1:
SQLSTATE[42S22]: Column not found: 1054 Unknown column 'DATATYPE' in 'field list'
#0 /Applications/MAMP/htdocs/PPE_NEW/App/Core/Model/DAO.php(64): PDO->query('SELECT CASE DAT...')
#1 /Applications/MAMP/htdocs/PPE_NEW/index.php(33): DAO::init()
#2 {main}

11:10:17 - 127.0.0.1:
SQLSTATE[42000]: Syntax error or access violation: 1064 You have an error in your SQL syntax; check the manual that corresponds to your MySQL server version for the right syntax to use near '"1"' at line 1
#0 /Applications/MAMP/htdocs/PPE_NEW/App/Core/Model/DAO.php(192): PDO->query('"1"', 7, 1)
#1 /Applications/MAMP/htdocs/PPE_NEW/App/Core/Class/Assure.php(39): DAO->refresh(Object(Assure))
#2 /Applications/MAMP/htdocs/PPE_NEW/App/Core/Controller/Controller.php(56): Assure->hydrate()
#3 /Applications/MAMP/htdocs/PPE_NEW/App/Core/Controller/Dispatcher.php(64): Controller->__destruct()
#4 /Applications/MAMP/htdocs/PPE_NEW/index.php(41): Dispatcher::deliver()
#5 {main}

11:10:53 - 127.0.0.1:
SQLSTATE[42000]: Syntax error or access violation: 1064 You have an error in your SQL syntax; check the manual that corresponds to your MySQL server version for the right syntax to use near '"1"' at line 1
#0 /Applications/MAMP/htdocs/PPE_NEW/App/Core/Model/DAO.php(192): PDO->query('"1"', 7, 1)
#1 /Applications/MAMP/htdocs/PPE_NEW/App/Core/Class/Assure.php(39): DAO->refresh(Object(Assure))
#2 /Applications/MAMP/htdocs/PPE_NEW/App/Core/Controller/Controller.php(56): Assure->hydrate()
#3 /Applications/MAMP/htdocs/PPE_NEW/App/Core/Controller/Dispatcher.php(64): Controller->__destruct()
#4 /Applications/MAMP/htdocs/PPE_NEW/index.php(41): Dispatcher::deliver()
#5 {main}

11:10:45 - 127.0.0.1:
SQLSTATE[42000]: Syntax error or access violation: 1064 You have an error in your SQL syntax; check the manual that corresponds to your MySQL server version for the right syntax to use near 'maj,0000-00-00 00:00:00) 
                  FROM assure 
                  WHERE' at line 1
#0 /Applications/MAMP/htdocs/PPE_NEW/App/Core/Model/DAO.php(192): PDO->query('SELECT TIMESTAM...', 7, 1)
#1 /Applications/MAMP/htdocs/PPE_NEW/App/Core/Class/Assure.php(39): DAO->refresh(Object(Assure))
#2 /Applications/MAMP/htdocs/PPE_NEW/App/Core/Controller/Controller.php(56): Assure->hydrate()
#3 /Applications/MAMP/htdocs/PPE_NEW/App/Core/Controller/Dispatcher.php(60): Controller->__destruct()
#4 /Applications/MAMP/htdocs/PPE_NEW/index.php(41): Dispatcher::deliver()
#5 {main}

11:10:49 - 127.0.0.1:
SQLSTATE[42000]: Syntax error or access violation: 1064 You have an error in your SQL syntax; check the manual that corresponds to your MySQL server version for the right syntax to use near 'maj,"0000-00-00 00:00:00") 
                  FROM assure 
                  WHE' at line 1
#0 /Applications/MAMP/htdocs/PPE_NEW/App/Core/Model/DAO.php(192): PDO->query('SELECT TIMESTAM...', 7, 1)
#1 /Applications/MAMP/htdocs/PPE_NEW/App/Core/Class/Assure.php(39): DAO->refresh(Object(Assure))
#2 /Applications/MAMP/htdocs/PPE_NEW/App/Core/Controller/Controller.php(56): Assure->hydrate()
#3 /Applications/MAMP/htdocs/PPE_NEW/App/Core/Controller/Dispatcher.php(64): Controller->__destruct()
#4 /Applications/MAMP/htdocs/PPE_NEW/index.php(41): Dispatcher::deliver()
#5 {main}

